Blatt6/Gruppe20_Blatt6/6.2e/testbench.vcd
$date
  Thu May 26 14:33:23 2022
$end
$version
  GHDL v0
$end
$timescale
  1 fs
$end
$scope module standard $end
$upscope $end
$scope module std_logic_1164 $end
$upscope $end
$scope module robot_tb $end
$var reg 1 ! alarm $end
$var reg 1 " reset $end
$var reg 1 # sensor $end
$var reg 1 $ clock $end
$var reg 4 % pattern[3:0] $end
$scope module rbt $end
$var reg 4 & pattern[3:0] $end
$var reg 1 ' sensor $end
$var reg 1 ( reset $end
$var reg 1 ) clock $end
$var reg 1 * alarm $end
$var reg 4 + dffout[0:3] $end
$var reg 1 , al $end
$scope module dff1 $end
$var reg 1 - d $end
$var reg 1 . clk $end
$var reg 1 / reset $end
$var reg 1 0 q $end
$upscope $end
$scope module dff2 $end
$var reg 1 1 d $end
$var reg 1 2 clk $end
$var reg 1 3 reset $end
$var reg 1 4 q $end
$upscope $end
$scope module dff3 $end
$var reg 1 5 d $end
$var reg 1 6 clk $end
$var reg 1 7 reset $end
$var reg 1 8 q $end
$upscope $end
$scope module dff4 $end
$var reg 1 9 d $end
$var reg 1 : clk $end
$var reg 1 ; reset $end
$var reg 1 < q $end
$upscope $end
$upscope $end
$upscope $end
$enddefinitions $end
#0
1!
1"
0#
1$
b1101 %
b1101 &
0'
1(
1)
1*
b0000 +
0,
0-
1.
1/
00
01
12
13
04
05
16
17
08
09
1:
1;
0<
#10000000
0"
0$
0(
0)
0.
0/
02
03
06
07
0:
0;
#20000000
1#
1$
1'
1)
b1000 +
1-
1.
10
11
12
16
1:
#30000000
0$
0)
0.
02
06
0:
#40000000
0#
1$
0'
1)
b0100 +
0-
1.
00
01
12
14
15
16
1:
#50000000
0$
0)
0.
02
06
0:
#60000000
1#
1$
1'
1)
b1010 +
1-
1.
10
11
12
04
05
16
18
19
1:
#70000000
0$
0)
0.
02
06
0:
#80000000
0!
1$
1)
0*
b1101 +
1,
1.
12
14
15
16
08
09
1:
1<
#90000000
0$
0)
0.
02
06
0:
#100000000
1!
0#
1$
b1011 %
b1011 &
0'
1)
1*
b0110 +
0,
0-
1.
00
01
12
16
18
19
1:
0<
#110000000
0$
0)
0.
02
06
0:
#120000000
0!
1#
1$
1'
1)
0*
b1011 +
1,
1-
1.
10
11
12
04
05
16
1:
1<
#130000000
0$
0)
0.
02
06
0:
#140000000
1!
1$
1)
1*
b1101 +
0,
1.
12
14
15
16
08
09
1:
#150000000
0$
0)
0.
02
06
0:
#160000000
0#
1$
0'
1)
b0110 +
0-
1.
00
01
12
16
18
19
1:
0<
#170000000
0$
0)
0.
02
06
0:
#180000000
0!
1#
1$
1'
1)
0*
b1011 +
1,
1-
1.
10
11
12
04
05
16
1:
1<
