Blatt6/Gruppe20_Blatt6/6.1ab/testbench.vcd
$date
  Thu May 26 13:44:06 2022
$end
$version
  GHDL v0
$end
$timescale
  1 fs
$end
$scope module standard $end
$upscope $end
$scope module std_logic_1164 $end
$upscope $end
$scope module sipo_register_tb $end
$var reg 1 ! sdi $end
$var reg 1 " clear $end
$var reg 1 # clock $end
$var reg 4 $ q[0:3] $end
$scope module sipotb $end
$var reg 1 % serial_in $end
$var reg 1 & clear $end
$var reg 1 ' clock $end
$var reg 4 ( q[0:3] $end
$var reg 4 ) dffout[0:3] $end
$scope module dff4 $end
$var reg 1 * d $end
$var reg 1 + clk $end
$var reg 1 , reset $end
$var reg 1 - q $end
$upscope $end
$scope module dff3 $end
$var reg 1 . d $end
$var reg 1 / clk $end
$var reg 1 0 reset $end
$var reg 1 1 q $end
$upscope $end
$scope module dff2 $end
$var reg 1 2 d $end
$var reg 1 3 clk $end
$var reg 1 4 reset $end
$var reg 1 5 q $end
$upscope $end
$scope module dff1 $end
$var reg 1 6 d $end
$var reg 1 7 clk $end
$var reg 1 8 reset $end
$var reg 1 9 q $end
$upscope $end
$scope module sipo_out(0) $end
$upscope $end
$scope module sipo_out(1) $end
$upscope $end
$scope module sipo_out(2) $end
$upscope $end
$scope module sipo_out(3) $end
$upscope $end
$upscope $end
$upscope $end
$enddefinitions $end
#0
0!
0"
0#
bUUUU $
0%
0&
0'
bUUUU (
bUUUU )
U*
0+
0,
U-
U.
0/
00
U1
U2
03
04
U5
06
07
08
U9
#10000000
1"
1#
b0000 $
1&
1'
b0000 (
b0000 )
0*
1+
1,
0-
0.
1/
10
01
02
13
14
05
17
18
09
#20000000
0"
0#
0&
0'
0+
0,
0/
00
03
04
07
08
#30000000
1!
1#
b1000 $
1%
1'
b1000 (
b1000 )
1+
1/
12
13
16
17
19
#40000000
0#
0'
0+
0/
03
07
#50000000
0!
1#
b0100 $
0%
1'
b0100 (
b0100 )
1+
1.
1/
02
13
15
06
17
09
#60000000
0#
0'
0+
0/
03
07
#70000000
1#
b0010 $
1'
b0010 (
b0010 )
1*
1+
0.
1/
11
13
05
17
#80000000
0#
0'
0+
0/
03
07
#90000000
1#
b0001 $
1'
b0001 (
b0001 )
0*
1+
1-
1/
01
13
17
#100000000
0#
0'
0+
0/
03
07
#110000000
#140000000
1"
1#
b0000 $
1&
1'
b0000 (
b0000 )
1+
1,
0-
1/
10
13
14
17
18
#150000000
0"
0#
0&
0'
0+
0,
0/
00
03
04
07
08
#160000000
1!
1%
16
#170000000
1#
b1000 $
1'
b1000 (
b1000 )
1+
1/
12
13
17
19
#180000000
0#
0'
0+
0/
03
07
#190000000
1#
b1100 $
1'
b1100 (
b1100 )
1+
1.
1/
13
15
17
#200000000
0!
0#
0%
0'
0+
0/
03
06
07
#210000000
1#
b0110 $
1'
b0110 (
b0110 )
1*
1+
1/
11
02
13
17
09
#220000000
1!
0#
1%
0'
0+
0/
03
16
07
#230000000
1#
b1011 $
1'
b1011 (
b1011 )
1+
1-
0.
1/
12
13
05
17
19
