blatt09/datapath/testbench.vcd
$date
  Mon Jun 26 17:33:09 2023
$end
$version
  GHDL v0
$end
$timescale
  1 fs
$end
$scope module standard $end
$upscope $end
$scope module std_logic_1164 $end
$upscope $end
$scope module numeric_std $end
$upscope $end
$scope module datapath_tb $end
$var reg 1 ! clk $end
$var reg 1 " reset $end
$var reg 1 # memtoreg $end
$var reg 1 $ pcsrc $end
$var reg 1 % alusrc $end
$var reg 1 & regdst $end
$var reg 1 ' regwrite $end
$var reg 1 ( jump $end
$var reg 3 ) alucontrol[2:0] $end
$var reg 32 * readdata[31:0] $end
$var reg 32 + instr[31:0] $end
$var reg 1 , zero $end
$var reg 32 - pc[31:0] $end
$var reg 32 . aluout[31:0] $end
$var reg 32 / writedata[31:0] $end
$scope module data $end
$var reg 1 0 clk $end
$var reg 1 1 reset $end
$var reg 1 2 memtoreg $end
$var reg 1 3 pcsrc $end
$var reg 1 4 alusrc $end
$var reg 1 5 regdst $end
$var reg 1 6 regwrite $end
$var reg 1 7 jump $end
$var reg 3 8 alucontrol[2:0] $end
$var reg 32 9 readdata[31:0] $end
$var reg 32 : instr[31:0] $end
$var reg 1 ; zero $end
$var reg 32 < pc[31:0] $end
$var reg 32 = aluout[31:0] $end
$var reg 32 > writedata[31:0] $end
$var reg 5 ? writereg[4:0] $end
$var reg 32 @ pcjump[31:0] $end
$var reg 32 A pcnext[31:0] $end
$var reg 32 B pcnextbr[31:0] $end
$var reg 32 C pcplus4[31:0] $end
$var reg 32 D pcbranch[31:0] $end
$var reg 32 E signimm[31:0] $end
$var reg 32 F signimmsh[31:0] $end
$var reg 32 G srca[31:0] $end
$var reg 32 H srcb[31:0] $end
$var reg 32 I result[31:0] $end
$scope module pcreg $end
$var reg 1 J clk $end
$var reg 1 K reset $end
$var reg 32 L d[31:0] $end
$var reg 32 M q[31:0] $end
$upscope $end
$scope module pcadd1 $end
$var reg 32 N a[31:0] $end
$var reg 32 O b[31:0] $end
$var reg 32 P y[31:0] $end
$upscope $end
$scope module immsh $end
$var reg 32 Q a[31:0] $end
$var reg 32 R y[31:0] $end
$upscope $end
$scope module pcadd2 $end
$var reg 32 S a[31:0] $end
$var reg 32 T b[31:0] $end
$var reg 32 U y[31:0] $end
$upscope $end
$scope module pcbrmux $end
$var reg 32 V d0[31:0] $end
$var reg 32 W d1[31:0] $end
$var reg 1 X s $end
$var reg 32 Y y[31:0] $end
$upscope $end
$scope module pcmux $end
$var reg 32 Z d0[31:0] $end
$var reg 32 [ d1[31:0] $end
$var reg 1 \ s $end
$var reg 32 ] y[31:0] $end
$upscope $end
$scope module rf $end
$var reg 1 ^ clk $end
$var reg 1 _ we3 $end
$var reg 5 ` a1[4:0] $end
$var reg 5 a a2[4:0] $end
$var reg 5 b a3[4:0] $end
$var reg 32 c wd3[31:0] $end
$var reg 32 d rd1[31:0] $end
$var reg 32 e rd2[31:0] $end
$comment mem is not handled $end
$upscope $end
$scope module wrmux $end
$var reg 5 f d0[4:0] $end
$var reg 5 g d1[4:0] $end
$var reg 1 h s $end
$var reg 5 i y[4:0] $end
$upscope $end
$scope module resmux $end
$var reg 32 j d0[31:0] $end
$var reg 32 k d1[31:0] $end
$var reg 1 l s $end
$var reg 32 m y[31:0] $end
$upscope $end
$scope module se $end
$var reg 16 n a[15:0] $end
$var reg 32 o aext[31:0] $end
$upscope $end
$scope module srcbmux $end
$var reg 32 p d0[31:0] $end
$var reg 32 q d1[31:0] $end
$var reg 1 r s $end
$var reg 32 s y[31:0] $end
$upscope $end
$scope module mainalu $end
$var reg 32 t a[31:0] $end
$var reg 32 u b[31:0] $end
$var reg 3 v alucontrol[2:0] $end
$var reg 32 w result[31:0] $end
$var reg 1 x zero $end
$upscope $end
$upscope $end
$upscope $end
$enddefinitions $end
#0
0!
1"
1#
0$
1%
0&
1'
1(
b111 )
b00000000000000000000000000000110 *
bUUUUUUUUUUU00001UUUUUUUUUUUUUUUU +
1,
b00000000000000000000000000000000 -
b00000000000000000000000000000000 .
bUUUUUUUUUUUUUUUUUUUUUUUUUUUUUUUU /
00
11
12
03
14
05
16
17
b111 8
b00000000000000000000000000000110 9
bUUUUUUUUUUU00001UUUUUUUUUUUUUUUU :
1;
b00000000000000000000000000000000 <
b00000000000000000000000000000000 =
bUUUUUUUUUUUUUUUUUUUUUUUUUUUUUUUU >
b00001 ?
b0000UUUUU00001UUUUUUUUUUUUUUUU00 @
b0000UUUUU00001UUUUUUUUUUUUUUUU00 A
b00000000000000000000000000000100 B
b00000000000000000000000000000100 C
bXXXXXXXXXXXXXXXXXXXXXXXXXXXXXXXX D
b0000000000000000UUUUUUUUUUUUUUUU E
b00000000000000UUUUUUUUUUUUUUUU00 F
b00000000000000000000000000000000 G
b0000000000000000UUUUUUUUUUUUUUUU H
b00000000000000000000000000000110 I
0J
1K
b0000UUUUU00001UUUUUUUUUUUUUUUU00 L
b00000000000000000000000000000000 M
b00000000000000000000000000000000 N
b00000000000000000000000000000100 O
b00000000000000000000000000000100 P
b0000000000000000UUUUUUUUUUUUUUUU Q
b00000000000000UUUUUUUUUUUUUUUU00 R
b00000000000000000000000000000100 S
b00000000000000UUUUUUUUUUUUUUUU00 T
bXXXXXXXXXXXXXXXXXXXXXXXXXXXXXXXX U
b00000000000000000000000000000100 V
bXXXXXXXXXXXXXXXXXXXXXXXXXXXXXXXX W
0X
b00000000000000000000000000000100 Y
b00000000000000000000000000000100 Z
b0000UUUUU00001UUUUUUUUUUUUUUUU00 [
1\
b0000UUUUU00001UUUUUUUUUUUUUUUU00 ]
0^
1_
bUUUUU `
b00001 a
b00001 b
b00000000000000000000000000000110 c
b00000000000000000000000000000000 d
bUUUUUUUUUUUUUUUUUUUUUUUUUUUUUUUU e
b00001 f
bUUUUU g
0h
b00001 i
b00000000000000000000000000000000 j
b00000000000000000000000000000110 k
1l
b00000000000000000000000000000110 m
bUUUUUUUUUUUUUUUU n
b0000000000000000UUUUUUUUUUUUUUUU o
bUUUUUUUUUUUUUUUUUUUUUUUUUUUUUUUU p
b0000000000000000UUUUUUUUUUUUUUUU q
1r
b0000000000000000UUUUUUUUUUUUUUUU s
b00000000000000000000000000000000 t
b0000000000000000UUUUUUUUUUUUUUUU u
b111 v
b00000000000000000000000000000000 w
1x
#10000000
1!
0"
b0000UUUUU00001UUUUUUUUUUUUUUUU00 -
10
01
b0000UUUUU00001UUUUUUUUUUUUUUUU00 <
bXXXXUUUUU00001UUUUUUUUUUUUUUUU00 @
bXXXXUUUUU00001UUUUUUUUUUUUUUUU00 A
bXXXXXXXXXXXXXXXXXXXXXXXXXXXXXXXX B
bXXXXXXXXXXXXXXXXXXXXXXXXXXXXXXXX C
1J
0K
bXXXXUUUUU00001UUUUUUUUUUUUUUUU00 L
b0000UUUUU00001UUUUUUUUUUUUUUUU00 M
b0000UUUUU00001UUUUUUUUUUUUUUUU00 N
bXXXXXXXXXXXXXXXXXXXXXXXXXXXXXXXX P
bXXXXXXXXXXXXXXXXXXXXXXXXXXXXXXXX S
bXXXXXXXXXXXXXXXXXXXXXXXXXXXXXXXX V
bXXXXXXXXXXXXXXXXXXXXXXXXXXXXXXXX Y
bXXXXXXXXXXXXXXXXXXXXXXXXXXXXXXXX Z
bXXXXUUUUU00001UUUUUUUUUUUUUUUU00 [
bXXXXUUUUU00001UUUUUUUUUUUUUUUU00 ]
1^
#15000000
0!
b00000000000000000000000000001000 *
bUUUUUUUUUUU00010UUUUUUUUUUUUUUUU +
00
b00000000000000000000000000001000 9
bUUUUUUUUUUU00010UUUUUUUUUUUUUUUU :
b00010 ?
bXXXXUUUUU00010UUUUUUUUUUUUUUUU00 @
bXXXXUUUUU00010UUUUUUUUUUUUUUUU00 A
b00000000000000000000000000001000 I
0J
bXXXXUUUUU00010UUUUUUUUUUUUUUUU00 L
bXXXXUUUUU00010UUUUUUUUUUUUUUUU00 [
bXXXXUUUUU00010UUUUUUUUUUUUUUUU00 ]
0^
b00010 a
b00010 b
b00000000000000000000000000001000 c
b00010 f
b00010 i
b00000000000000000000000000001000 k
b00000000000000000000000000001000 m
#20000000
1!
bXXXXUUUUU00010UUUUUUUUUUUUUUUU00 -
10
bXXXXUUUUU00010UUUUUUUUUUUUUUUU00 <
1J
bXXXXUUUUU00010UUUUUUUUUUUUUUUU00 M
bXXXXUUUUU00010UUUUUUUUUUUUUUUU00 N
1^
#30000000
0!
b001 )
bUUUUUU00001000100000000000000000 +
0,
b00000000000000000000000000000110 .
b00000000000000000000000000001000 /
00
b001 8
bUUUUUU00001000100000000000000000 :
0;
b00000000000000000000000000000110 =
b00000000000000000000000000001000 >
bXXXX0000100010000000000000000000 @
bXXXX0000100010000000000000000000 A
b00000000000000000000000000000000 E
b00000000000000000000000000000000 F
b00000000000000000000000000000110 G
b00000000000000000000000000000000 H
0J
bXXXX0000100010000000000000000000 L
b00000000000000000000000000000000 Q
b00000000000000000000000000000000 R
b00000000000000000000000000000000 T
bXXXX0000100010000000000000000000 [
bXXXX0000100010000000000000000000 ]
0^
b00001 `
b00000000000000000000000000000110 d
b00000000000000000000000000001000 e
b00000 g
b00000000000000000000000000000110 j
b0000000000000000 n
b00000000000000000000000000000000 o
b00000000000000000000000000001000 p
b00000000000000000000000000000000 q
b00000000000000000000000000000000 s
b00000000000000000000000000000110 t
b00000000000000000000000000000000 u
b001 v
b00000000000000000000000000000110 w
0x
#40000000
0#
0%
1&
b010 )
bUUUUUU00001000100001100000000000 +
b00000000000000000000000000001110 .
02
04
15
b010 8
bUUUUUU00001000100001100000000000 :
b00000000000000000000000000001110 =
b00011 ?
bXXXX0000100010000110000000000000 @
bXXXX0000100010000110000000000000 A
b00000000000000000001100000000000 E
b00000000000000000110000000000000 F
b00000000000000000000000000001000 H
b00000000000000000000000000001110 I
bXXXX0000100010000110000000000000 L
b00000000000000000001100000000000 Q
b00000000000000000110000000000000 R
b00000000000000000110000000000000 T
bXXXX0000100010000110000000000000 [
bXXXX0000100010000110000000000000 ]
b00011 b
b00000000000000000000000000001110 c
b00011 g
1h
b00011 i
b00000000000000000000000000001110 j
0l
b00000000000000000000000000001110 m
b0001100000000000 n
b00000000000000000001100000000000 o
b00000000000000000001100000000000 q
0r
b00000000000000000000000000001000 s
b00000000000000000000000000001000 u
b010 v
b00000000000000000000000000001110 w
#45000000
1!
bXXXX0000100010000110000000000000 -
10
bXXXX0000100010000110000000000000 <
1J
bXXXX0000100010000110000000000000 M
bXXXX0000100010000110000000000000 N
1^
#50000000
0!
bUUUUUU00001000110001100000000000 +
b00000000000000000000000000010100 .
b00000000000000000000000000001110 /
00
bUUUUUU00001000110001100000000000 :
b00000000000000000000000000010100 =
b00000000000000000000000000001110 >
bXXXX0000100011000110000000000000 @
bXXXX0000100011000110000000000000 A
b00000000000000000000000000001110 H
b00000000000000000000000000010100 I
0J
bXXXX0000100011000110000000000000 L
bXXXX0000100011000110000000000000 [
bXXXX0000100011000110000000000000 ]
0^
b00011 a
b00000000000000000000000000010100 c
b00000000000000000000000000001110 e
b00011 f
b00000000000000000000000000010100 j
b00000000000000000000000000010100 m
b00000000000000000000000000001110 p
b00000000000000000000000000001110 s
b00000000000000000000000000001110 u
b00000000000000000000000000010100 w
#60000000
1%
0&
bUUUUUU00011001000000000000000111 +
b00000000000000000000000000010101 .
bUUUUUUUUUUUUUUUUUUUUUUUUUUUUUUUU /
14
05
bUUUUUU00011001000000000000000111 :
b00000000000000000000000000010101 =
bUUUUUUUUUUUUUUUUUUUUUUUUUUUUUUUU >
b00100 ?
bXXXX0001100100000000000000011100 @
bXXXX0001100100000000000000011100 A
b00000000000000000000000000000111 E
b00000000000000000000000000011100 F
b00000000000000000000000000001110 G
b00000000000000000000000000000111 H
b00000000000000000000000000010101 I
bXXXX0001100100000000000000011100 L
b00000000000000000000000000000111 Q
b00000000000000000000000000011100 R
b00000000000000000000000000011100 T
bXXXX0001100100000000000000011100 [
bXXXX0001100100000000000000011100 ]
b00011 `
b00100 a
b00100 b
b00000000000000000000000000010101 c
b00000000000000000000000000001110 d
bUUUUUUUUUUUUUUUUUUUUUUUUUUUUUUUU e
b00100 f
b00000 g
0h
b00100 i
b00000000000000000000000000010101 j
b00000000000000000000000000010101 m
b0000000000000111 n
b00000000000000000000000000000111 o
bUUUUUUUUUUUUUUUUUUUUUUUUUUUUUUUU p
b00000000000000000000000000000111 q
1r
b00000000000000000000000000000111 s
b00000000000000000000000000001110 t
b00000000000000000000000000000111 u
b00000000000000000000000000010101 w
#65000000
1!
bXXXX0001100100000000000000011100 -
10
bXXXX0001100100000000000000011100 <
1J
bXXXX0001100100000000000000011100 M
bXXXX0001100100000000000000011100 N
1^
#70000000
bUUUUUU00011000110000000000000111 +
b00000000000000000000000000001110 /
bUUUUUU00011000110000000000000111 :
b00000000000000000000000000001110 >
b00011 ?
bXXXX0001100011000000000000011100 @
bXXXX0001100011000000000000011100 A
bXXXX0001100011000000000000011100 L
bXXXX0001100011000000000000011100 [
bXXXX0001100011000000000000011100 ]
b00011 a
b00011 b
b00000000000000000000000000001110 e
b00011 f
b00011 i
b00000000000000000000000000001110 p
#80000000
0!
bUUUUUU00011001000000000000000111 +
b00000000000000000000000000010101 /
00
bUUUUUU00011001000000000000000111 :
b00000000000000000000000000010101 >
b00100 ?
bXXXX0001100100000000000000011100 @
bXXXX0001100100000000000000011100 A
0J
bXXXX0001100100000000000000011100 L
bXXXX0001100100000000000000011100 [
bXXXX0001100100000000000000011100 ]
0^
b00100 a
b00100 b
b00000000000000000000000000010101 e
b00100 f
b00100 i
b00000000000000000000000000010101 p
#90000000
1!
bUUUUUU00000000000000000000110010 +
b00000000000000000000000000110010 .
b00000000000000000000000000000000 /
10
bUUUUUU00000000000000000000110010 :
b00000000000000000000000000110010 =
b00000000000000000000000000000000 >
b00000 ?
bXXXX0000000000000000000011001000 @
bXXXX0000000000000000000011001000 A
b00000000000000000000000000110010 E
b00000000000000000000000011001000 F
b00000000000000000000000000000000 G
b00000000000000000000000000110010 H
b00000000000000000000000000110010 I
1J
bXXXX0000000000000000000011001000 L
b00000000000000000000000000110010 Q
b00000000000000000000000011001000 R
b00000000000000000000000011001000 T
bXXXX0000000000000000000011001000 [
bXXXX0000000000000000000011001000 ]
1^
b00000 `
b00000 a
b00000 b
b00000000000000000000000000110010 c
b00000000000000000000000000000000 d
b00000000000000000000000000000000 e
b00000 f
b00000 i
b00000000000000000000000000110010 j
b00000000000000000000000000110010 m
b0000000000110010 n
b00000000000000000000000000110010 o
b00000000000000000000000000000000 p
b00000000000000000000000000110010 q
b00000000000000000000000000110010 s
b00000000000000000000000000000000 t
b00000000000000000000000000110010 u
b00000000000000000000000000110010 w
#100000000
0!
00
0J
0^
#110000000
1!
0(
bXXXX0000000000000000000011001000 -
10
07
bXXXX0000000000000000000011001000 <
bXXXXXXXXXXXXXXXXXXXXXXXXXXXXXXXX A
1J
bXXXXXXXXXXXXXXXXXXXXXXXXXXXXXXXX L
bXXXX0000000000000000000011001000 M
bXXXX0000000000000000000011001000 N
0\
bXXXXXXXXXXXXXXXXXXXXXXXXXXXXXXXX ]
1^
#120000000
1$
13
1X
#130000000
0!
00
0J
0^
#140000000
1!
0$
bXXXXXXXXXXXXXXXXXXXXXXXXXXXXXXXX -
10
03
bXXXXXXXXXXXXXXXXXXXXXXXXXXXXXXXX <
1J
bXXXXXXXXXXXXXXXXXXXXXXXXXXXXXXXX M
bXXXXXXXXXXXXXXXXXXXXXXXXXXXXXXXX N
0X
1^
